{
  "pagination": {
    "total": 438,
    "offset": 0,
    "limit": 100,
    "hasMore": true
  },
  "items": [
    {
      "name": "index",
      "type": "registry:style",
      "registry": "@shadcn",
      "addCommandArgument": "@shadcn/index"
    },
    {
      "name": "style",
      "type": "registry:style",
      "registry": "@shadcn",
      "addCommandArgument": "@shadcn/style"
    },
    {
      "name": "accordion",
      "type": "registry:ui",
      "registry": "@shadcn",
      "addCommandArgument": "@shadcn/accordion"
    },
    {
      "name": "alert",
      "type": "registry:ui",
      "registry": "@shadcn",
      "addCommandArgument": "@shadcn/alert"
    },
    {
      "name": "alert-dialog",
      "type": "registry:ui",
      "registry": "@shadcn",
      "addCommandArgument": "@shadcn/alert-dialog"
    },
    {
      "name": "aspect-ratio",
      "type": "registry:ui",
      "registry": "@shadcn",
      "addCommandArgument": "@shadcn/aspect-ratio"
    },
    {
      "name": "avatar",
      "type": "registry:ui",
      "registry": "@shadcn",
      "addCommandArgument": "@shadcn/avatar"
    },
    {
      "name": "badge",
      "type": "registry:ui",
      "registry": "@shadcn",
      "addCommandArgument": "@shadcn/badge"
    },
    {
      "name": "breadcrumb",
      "type": "registry:ui",
      "registry": "@shadcn",
      "addCommandArgument": "@shadcn/breadcrumb"
    },
    {
      "name": "button",
      "type": "registry:ui",
      "registry": "@shadcn",
      "addCommandArgument": "@shadcn/button"
    },
    {
      "name": "button-group",
      "type": "registry:ui",
      "registry": "@shadcn",
      "addCommandArgument": "@shadcn/button-group"
    },
    {
      "name": "calendar",
      "type": "registry:ui",
      "registry": "@shadcn",
      "addCommandArgument": "@shadcn/calendar"
    },
    {
      "name": "card",
      "type": "registry:ui",
      "registry": "@shadcn",
      "addCommandArgument": "@shadcn/card"
    },
    {
      "name": "carousel",
      "type": "registry:ui",
      "registry": "@shadcn",
      "addCommandArgument": "@shadcn/carousel"
    },
    {
      "name": "chart",
      "type": "registry:ui",
      "registry": "@shadcn",
      "addCommandArgument": "@shadcn/chart"
    },
    {
      "name": "checkbox",
      "type": "registry:ui",
      "registry": "@shadcn",
      "addCommandArgument": "@shadcn/checkbox"
    },
    {
      "name": "collapsible",
      "type": "registry:ui",
      "registry": "@shadcn",
      "addCommandArgument": "@shadcn/collapsible"
    },
    {
      "name": "command",
      "type": "registry:ui",
      "registry": "@shadcn",
      "addCommandArgument": "@shadcn/command"
    },
    {
      "name": "context-menu",
      "type": "registry:ui",
      "registry": "@shadcn",
      "addCommandArgument": "@shadcn/context-menu"
    },
    {
      "name": "dialog",
      "type": "registry:ui",
      "registry": "@shadcn",
      "addCommandArgument": "@shadcn/dialog"
    },
    {
      "name": "drawer",
      "type": "registry:ui",
      "registry": "@shadcn",
      "addCommandArgument": "@shadcn/drawer"
    },
    {
      "name": "dropdown-menu",
      "type": "registry:ui",
      "registry": "@shadcn",
      "addCommandArgument": "@shadcn/dropdown-menu"
    },
    {
      "name": "empty",
      "type": "registry:ui",
      "registry": "@shadcn",
      "addCommandArgument": "@shadcn/empty"
    },
    {
      "name": "field",
      "type": "registry:ui",
      "registry": "@shadcn",
      "addCommandArgument": "@shadcn/field"
    },
    {
      "name": "form",
      "type": "registry:ui",
      "registry": "@shadcn",
      "addCommandArgument": "@shadcn/form"
    },
    {
      "name": "hover-card",
      "type": "registry:ui",
      "registry": "@shadcn",
      "addCommandArgument": "@shadcn/hover-card"
    },
    {
      "name": "input",
      "type": "registry:ui",
      "registry": "@shadcn",
      "addCommandArgument": "@shadcn/input"
    },
    {
      "name": "input-group",
      "type": "registry:ui",
      "registry": "@shadcn",
      "addCommandArgument": "@shadcn/input-group"
    },
    {
      "name": "input-otp",
      "type": "registry:ui",
      "registry": "@shadcn",
      "addCommandArgument": "@shadcn/input-otp"
    },
    {
      "name": "item",
      "type": "registry:ui",
      "registry": "@shadcn",
      "addCommandArgument": "@shadcn/item"
    },
    {
      "name": "label",
      "type": "registry:ui",
      "registry": "@shadcn",
      "addCommandArgument": "@shadcn/label"
    },
    {
      "name": "menubar",
      "type": "registry:ui",
      "registry": "@shadcn",
      "addCommandArgument": "@shadcn/menubar"
    },
    {
      "name": "navigation-menu",
      "type": "registry:ui",
      "registry": "@shadcn",
      "addCommandArgument": "@shadcn/navigation-menu"
    },
    {
      "name": "pagination",
      "type": "registry:ui",
      "registry": "@shadcn",
      "addCommandArgument": "@shadcn/pagination"
    },
    {
      "name": "popover",
      "type": "registry:ui",
      "registry": "@shadcn",
      "addCommandArgument": "@shadcn/popover"
    },
    {
      "name": "progress",
      "type": "registry:ui",
      "registry": "@shadcn",
      "addCommandArgument": "@shadcn/progress"
    },
    {
      "name": "radio-group",
      "type": "registry:ui",
      "registry": "@shadcn",
      "addCommandArgument": "@shadcn/radio-group"
    },
    {
      "name": "resizable",
      "type": "registry:ui",
      "registry": "@shadcn",
      "addCommandArgument": "@shadcn/resizable"
    },
    {
      "name": "scroll-area",
      "type": "registry:ui",
      "registry": "@shadcn",
      "addCommandArgument": "@shadcn/scroll-area"
    },
    {
      "name": "select",
      "type": "registry:ui",
      "registry": "@shadcn",
      "addCommandArgument": "@shadcn/select"
    },
    {
      "name": "separator",
      "type": "registry:ui",
      "registry": "@shadcn",
      "addCommandArgument": "@shadcn/separator"
    },
    {
      "name": "sheet",
      "type": "registry:ui",
      "registry": "@shadcn",
      "addCommandArgument": "@shadcn/sheet"
    },
    {
      "name": "sidebar",
      "type": "registry:ui",
      "registry": "@shadcn",
      "addCommandArgument": "@shadcn/sidebar"
    },
    {
      "name": "skeleton",
      "type": "registry:ui",
      "registry": "@shadcn",
      "addCommandArgument": "@shadcn/skeleton"
    },
    {
      "name": "slider",
      "type": "registry:ui",
      "registry": "@shadcn",
      "addCommandArgument": "@shadcn/slider"
    },
    {
      "name": "sonner",
      "type": "registry:ui",
      "registry": "@shadcn",
      "addCommandArgument": "@shadcn/sonner"
    },
    {
      "name": "spinner",
      "type": "registry:ui",
      "registry": "@shadcn",
      "addCommandArgument": "@shadcn/spinner"
    },
    {
      "name": "switch",
      "type": "registry:ui",
      "registry": "@shadcn",
      "addCommandArgument": "@shadcn/switch"
    },
    {
      "name": "table",
      "type": "registry:ui",
      "registry": "@shadcn",
      "addCommandArgument": "@shadcn/table"
    },
    {
      "name": "tabs",
      "type": "registry:ui",
      "registry": "@shadcn",
      "addCommandArgument": "@shadcn/tabs"
    },
    {
      "name": "textarea",
      "type": "registry:ui",
      "registry": "@shadcn",
      "addCommandArgument": "@shadcn/textarea"
    },
    {
      "name": "toggle",
      "type": "registry:ui",
      "registry": "@shadcn",
      "addCommandArgument": "@shadcn/toggle"
    },
    {
      "name": "toggle-group",
      "type": "registry:ui",
      "registry": "@shadcn",
      "addCommandArgument": "@shadcn/toggle-group"
    },
    {
      "name": "tooltip",
      "type": "registry:ui",
      "registry": "@shadcn",
      "addCommandArgument": "@shadcn/tooltip"
    },
    {
      "name": "kbd",
      "type": "registry:ui",
      "registry": "@shadcn",
      "addCommandArgument": "@shadcn/kbd"
    },
    {
      "name": "native-select",
      "type": "registry:ui",
      "registry": "@shadcn",
      "addCommandArgument": "@shadcn/native-select"
    },
    {
      "name": "dashboard-01",
      "type": "registry:block",
      "description": "A dashboard with sidebar, charts and data table.",
      "registry": "@shadcn",
      "addCommandArgument": "@shadcn/dashboard-01"
    },
    {
      "name": "sidebar-01",
      "type": "registry:block",
      "description": "A simple sidebar with navigation grouped by section.",
      "registry": "@shadcn",
      "addCommandArgument": "@shadcn/sidebar-01"
    },
    {
      "name": "sidebar-02",
      "type": "registry:block",
      "description": "A sidebar with collapsible sections.",
      "registry": "@shadcn",
      "addCommandArgument": "@shadcn/sidebar-02"
    },
    {
      "name": "sidebar-03",
      "type": "registry:block",
      "description": "A sidebar with submenus.",
      "registry": "@shadcn",
      "addCommandArgument": "@shadcn/sidebar-03"
    },
    {
      "name": "sidebar-04",
      "type": "registry:block",
      "description": "A floating sidebar with submenus.",
      "registry": "@shadcn",
      "addCommandArgument": "@shadcn/sidebar-04"
    },
    {
      "name": "sidebar-05",
      "type": "registry:block",
      "description": "A sidebar with collapsible submenus.",
      "registry": "@shadcn",
      "addCommandArgument": "@shadcn/sidebar-05"
    },
    {
      "name": "sidebar-06",
      "type": "registry:block",
      "description": "A sidebar with submenus as dropdowns.",
      "registry": "@shadcn",
      "addCommandArgument": "@shadcn/sidebar-06"
    },
    {
      "name": "sidebar-07",
      "type": "registry:block",
      "description": "A sidebar that collapses to icons.",
      "registry": "@shadcn",
      "addCommandArgument": "@shadcn/sidebar-07"
    },
    {
      "name": "sidebar-08",
      "type": "registry:block",
      "description": "An inset sidebar with secondary navigation.",
      "registry": "@shadcn",
      "addCommandArgument": "@shadcn/sidebar-08"
    },
    {
      "name": "sidebar-09",
      "type": "registry:block",
      "description": "Collapsible nested sidebars.",
      "registry": "@shadcn",
      "addCommandArgument": "@shadcn/sidebar-09"
    },
    {
      "name": "sidebar-10",
      "type": "registry:block",
      "description": "A sidebar in a popover.",
      "registry": "@shadcn",
      "addCommandArgument": "@shadcn/sidebar-10"
    },
    {
      "name": "sidebar-11",
      "type": "registry:block",
      "description": "A sidebar with a collapsible file tree.",
      "registry": "@shadcn",
      "addCommandArgument": "@shadcn/sidebar-11"
    },
    {
      "name": "sidebar-12",
      "type": "registry:block",
      "description": "A sidebar with a calendar.",
      "registry": "@shadcn",
      "addCommandArgument": "@shadcn/sidebar-12"
    },
    {
      "name": "sidebar-13",
      "type": "registry:block",
      "description": "A sidebar in a dialog.",
      "registry": "@shadcn",
      "addCommandArgument": "@shadcn/sidebar-13"
    },
    {
      "name": "sidebar-14",
      "type": "registry:block",
      "description": "A sidebar on the right.",
      "registry": "@shadcn",
      "addCommandArgument": "@shadcn/sidebar-14"
    },
    {
      "name": "sidebar-15",
      "type": "registry:block",
      "description": "A left and right sidebar.",
      "registry": "@shadcn",
      "addCommandArgument": "@shadcn/sidebar-15"
    },
    {
      "name": "sidebar-16",
      "type": "registry:block",
      "description": "A sidebar with a sticky site header.",
      "registry": "@shadcn",
      "addCommandArgument": "@shadcn/sidebar-16"
    },
    {
      "name": "login-01",
      "type": "registry:block",
      "description": "A simple login form.",
      "registry": "@shadcn",
      "addCommandArgument": "@shadcn/login-01"
    },
    {
      "name": "login-02",
      "type": "registry:block",
      "description": "A two column login page with a cover image.",
      "registry": "@shadcn",
      "addCommandArgument": "@shadcn/login-02"
    },
    {
      "name": "login-03",
      "type": "registry:block",
      "description": "A login page with a muted background color.",
      "registry": "@shadcn",
      "addCommandArgument": "@shadcn/login-03"
    },
    {
      "name": "login-04",
      "type": "registry:block",
      "description": "A login page with form and image.",
      "registry": "@shadcn",
      "addCommandArgument": "@shadcn/login-04"
    },
    {
      "name": "login-05",
      "type": "registry:block",
      "description": "A simple email-only login page.",
      "registry": "@shadcn",
      "addCommandArgument": "@shadcn/login-05"
    },
    {
      "name": "calendar-01",
      "type": "registry:block",
      "description": "A simple calendar.",
      "registry": "@shadcn",
      "addCommandArgument": "@shadcn/calendar-01"
    },
    {
      "name": "calendar-02",
      "type": "registry:block",
      "description": "Multiple months with single selection.",
      "registry": "@shadcn",
      "addCommandArgument": "@shadcn/calendar-02"
    },
    {
      "name": "calendar-03",
      "type": "registry:block",
      "description": "Multiple months with multiple selection.",
      "registry": "@shadcn",
      "addCommandArgument": "@shadcn/calendar-03"
    },
    {
      "name": "calendar-04",
      "type": "registry:block",
      "description": "Single month with range selection",
      "registry": "@shadcn",
      "addCommandArgument": "@shadcn/calendar-04"
    },
    {
      "name": "calendar-05",
      "type": "registry:block",
      "description": "Multiple months with range selection",
      "registry": "@shadcn",
      "addCommandArgument": "@shadcn/calendar-05"
    },
    {
      "name": "calendar-06",
      "type": "registry:block",
      "description": "Range selection with minimum days",
      "registry": "@shadcn",
      "addCommandArgument": "@shadcn/calendar-06"
    },
    {
      "name": "calendar-07",
      "type": "registry:block",
      "description": "Range selection with minimum and maximum days",
      "registry": "@shadcn",
      "addCommandArgument": "@shadcn/calendar-07"
    },
    {
      "name": "calendar-08",
      "type": "registry:block",
      "description": "Calendar with disabled days",
      "registry": "@shadcn",
      "addCommandArgument": "@shadcn/calendar-08"
    },
    {
      "name": "calendar-09",
      "type": "registry:block",
      "description": "Calendar with disabled weekends",
      "registry": "@shadcn",
      "addCommandArgument": "@shadcn/calendar-09"
    },
    {
      "name": "calendar-10",
      "type": "registry:block",
      "description": "Today button",
      "registry": "@shadcn",
      "addCommandArgument": "@shadcn/calendar-10"
    },
    {
      "name": "calendar-11",
      "type": "registry:block",
      "description": "Start and end of month",
      "registry": "@shadcn",
      "addCommandArgument": "@shadcn/calendar-11"
    },
    {
      "name": "calendar-12",
      "type": "registry:block",
      "description": "Localized calendar",
      "registry": "@shadcn",
      "addCommandArgument": "@shadcn/calendar-12"
    },
    {
      "name": "calendar-13",
      "type": "registry:block",
      "description": "With Month and Year Dropdown",
      "registry": "@shadcn",
      "addCommandArgument": "@shadcn/calendar-13"
    },
    {
      "name": "calendar-14",
      "type": "registry:block",
      "description": "With Booked/Unavailable Days",
      "registry": "@shadcn",
      "addCommandArgument": "@shadcn/calendar-14"
    },
    {
      "name": "calendar-15",
      "type": "registry:block",
      "description": "With Week Numbers",
      "registry": "@shadcn",
      "addCommandArgument": "@shadcn/calendar-15"
    },
    {
      "name": "calendar-16",
      "type": "registry:block",
      "description": "With time picker",
      "registry": "@shadcn",
      "addCommandArgument": "@shadcn/calendar-16"
    },
    {
      "name": "calendar-17",
      "type": "registry:block",
      "description": "With time picker inline",
      "registry": "@shadcn",
      "addCommandArgument": "@shadcn/calendar-17"
    },
    {
      "name": "calendar-18",
      "type": "registry:block",
      "description": "Variable size",
      "registry": "@shadcn",
      "addCommandArgument": "@shadcn/calendar-18"
    },
    {
      "name": "calendar-19",
      "type": "registry:block",
      "description": "With presets",
      "registry": "@shadcn",
      "addCommandArgument": "@shadcn/calendar-19"
    },
    {
      "name": "calendar-20",
      "type": "registry:block",
      "description": "With time presets",
      "registry": "@shadcn",
      "addCommandArgument": "@shadcn/calendar-20"
    },
    {
      "name": "calendar-21",
      "type": "registry:block",
      "description": "Custom days and formatters",
      "registry": "@shadcn",
      "addCommandArgument": "@shadcn/calendar-21"
    },
    {
      "name": "calendar-22",
      "type": "registry:block",
      "description": "Date picker",
      "registry": "@shadcn",
      "addCommandArgument": "@shadcn/calendar-22"
    }
  ]
}
